df to link table — df2link • pcutils
…
fun
function to summary the elements number, defalut: sum, you can choose mean.

    Value

data.frame

    Examples

data(otutab)
cbind(taxonomy, num = rowSums(otutab))[1:10, ] -> test
df2link(test)
#> $links
#> # A tibble: 41 × 3
#> # Groups:   from, to [41]
#>    from                   to                     weight
#>    <chr>                  <chr>                   <dbl>
#>  1 k__Bacteria            p__Actinobacteria       54986
#>  2 k__Bacteria            p__Bacteroidetes        16484
#>  3 k__Bacteria            p__Proteobacteria       74430
#>  4 p__Actinobacteria      c__Actinobacteria       54986
#>  5 p__Bacteroidetes       c__Flavobacteriia       16484
#>  6 p__Proteobacteria      c__Alphaproteobacteria   7789
#>  7 p__Proteobacteria      c__Betaproteobacteria   36154
#>  8 p__Proteobacteria      c__Gammaproteobacteria  30487
#>  9 c__Actinobacteria      o__Actinomycetales      54986
#> 10 c__Alphaproteobacteria o__Rhizobiales           7789
#> # ℹ 31 more rows
…
